module gitlab.com/gitlab-org/terraform-provider-gitlab

go 1.22.3

require (
	github.com/dcarbone/terraform-plugin-framework-utils/v3 v3.6.0
	github.com/hashicorp/go-cty v1.4.1-0.20200723130312-85980079f637
	github.com/hashicorp/go-retryablehttp v0.7.6
	github.com/hashicorp/terraform-plugin-framework v1.8.0
	github.com/hashicorp/terraform-plugin-framework-validators v0.12.0
	github.com/hashicorp/terraform-plugin-go v0.23.0
	github.com/hashicorp/terraform-plugin-log v0.9.0
	github.com/hashicorp/terraform-plugin-mux v0.16.0
	github.com/hashicorp/terraform-plugin-sdk/v2 v2.34.0
	github.com/mitchellh/hashstructure/v2 v2.0.2
	github.com/onsi/gomega v1.33.1
	github.com/xanzy/go-gitlab v0.105.0
)

require (
	github.com/ProtonMail/go-crypto v1.1.0-alpha.2 // indirect
	github.com/agext/levenshtein v1.2.3 // indirect
	github.com/apparentlymart/go-textseg/v15 v15.0.0 // indirect
	github.com/cloudflare/circl v1.3.7 // indirect
	github.com/fatih/color v1.16.0 // indirect
	github.com/golang/protobuf v1.5.4 // indirect
	github.com/google/go-cmp v0.6.0 // indirect
	github.com/google/go-querystring v1.1.0 // indirect
	github.com/hashicorp/errwrap v1.1.0 // indirect
	github.com/hashicorp/go-checkpoint v0.5.0 // indirect
	github.com/hashicorp/go-cleanhttp v0.5.2 // indirect
	github.com/hashicorp/go-hclog v1.6.3 // indirect
	github.com/hashicorp/go-multierror v1.1.1 // indirect
	github.com/hashicorp/go-plugin v1.6.0 // indirect
	github.com/hashicorp/go-uuid v1.0.3 // indirect
	github.com/hashicorp/go-version v1.6.0 // indirect
	github.com/hashicorp/hc-install v0.6.4 // indirect
	github.com/hashicorp/hcl/v2 v2.20.1 // indirect
	github.com/hashicorp/logutils v1.0.0 // indirect
	github.com/hashicorp/terraform-exec v0.21.0 // indirect
	github.com/hashicorp/terraform-json v0.22.1 // indirect
	github.com/hashicorp/terraform-registry-address v0.2.3 // indirect
	github.com/hashicorp/terraform-svchost v0.1.1 // indirect
	github.com/hashicorp/yamux v0.1.1 // indirect
	github.com/mattn/go-colorable v0.1.13 // indirect
	github.com/mattn/go-isatty v0.0.20 // indirect
	github.com/mitchellh/copystructure v1.2.0 // indirect
	github.com/mitchellh/go-testing-interface v1.14.1 // indirect
	github.com/mitchellh/go-wordwrap v1.0.1 // indirect
	github.com/mitchellh/mapstructure v1.5.0 // indirect
	github.com/mitchellh/reflectwalk v1.0.2 // indirect
	github.com/oklog/run v1.1.0 // indirect
	github.com/vmihailenco/msgpack v4.0.4+incompatible // indirect
	github.com/vmihailenco/msgpack/v5 v5.4.1 // indirect
	github.com/vmihailenco/tagparser/v2 v2.0.0 // indirect
	github.com/zclconf/go-cty v1.14.4 // indirect
	golang.org/x/crypto v0.23.0 // indirect
	golang.org/x/mod v0.17.0 // indirect
	golang.org/x/net v0.24.0 // indirect
	golang.org/x/oauth2 v0.17.0 // indirect
	golang.org/x/sync v0.7.0 // indirect
	golang.org/x/sys v0.20.0 // indirect
	golang.org/x/text v0.15.0 // indirect
	golang.org/x/time v0.5.0 // indirect
	golang.org/x/tools v0.20.0 // indirect
	google.golang.org/appengine v1.6.8 // indirect
	google.golang.org/genproto/googleapis/rpc v0.0.0-20240227224415-6ceb2ff114de // indirect
	google.golang.org/grpc v1.63.2 // indirect
	google.golang.org/protobuf v1.34.0 // indirect
	gopkg.in/yaml.v3 v3.0.1 // indirect
)
